…
sim_results_df <- 
  expand_grid(
    sample_size = 30,
    true_mean = c(1,2,3,4,5,6),
    iter = 1:5000
  ) %>% 
  mutate(
    estimate_df = map(sample_size, \(x) normal_dist(x,true_mean, sd))) %>% 
      unnest(estimate_df) %>% select(estimate, p.value, true_mean) 

sim_results_df %>% group_by(true_mean) 
```

    ## # A tibble: 30,000 × 3
    ## # Groups:   true_mean [6]
    ##    estimate  p.value true_mean
    ##       <dbl>    <dbl>     <dbl>
    ##  1   3.70   0.000264         1
    ##  2   1.74   0.0702           1
    ##  3   1.62   0.0430           1
    ##  4   0.208  0.838            1
    ##  5   1.16   0.305            1
    ##  6   1.22   0.223            1
    ##  7   2.02   0.0612           1
    ##  8  -0.0774 0.930            1
    ##  9   1.19   0.249            1
    ## 10   2.79   0.00443          1
    ## # ℹ 29,990 more rows
